email;password;active;name;
contato@homebrasil.com;segredo;1;Homebrasil;
contato@hauze.com;nuvens-e-vetores;1;Agência Hauze;
desenvolvimento@homebrasil.com;42paratudo;1;Equipe de Desenvolvimento;
joselito@hermeserenato.com.br;vamosesculachar;0;O sem noção;